data_cleanup_final_project
…
data_cleanup_final_project

Carine Hajjar, Johannes Lang, Diego Arias

10/31/2019

## # A tibble: 107 x 61
##    s     Gender...2 Class...3 `What extracurr `What area does
##    <lgl> <chr>          <dbl> <chr>            <chr>           
##  1 NA    Male            2021 Politics and Po Social Sciences 
##  2 NA    Female          2022 Club Sports      STEM            
##  3 NA    Male            2021 Social/Special  Social Sciences 
##  4 NA    Female          2022 none             STEM            
##  5 NA    Female          2021 Performing Arts  Social Sciences 
##  6 NA    Male            2021 Pre-Professional STEM            
##  7 NA    Male            2021 Spiritual Organ STEM            
##  8 NA    Male            2021 Volunteering     Social Sciences 
##  9 NA    Male            2020 Politics and Po Social Sciences 
## 10 NA    Female          2022 Performing Arts  Social Sciences 
## #  with 97 more rows, and 56 more variables: `Are you a student
## #   athlete?` <chr>, `Are you an international student?` <chr>, `What is
## #   your racial/ethnic background?` <chr>, `Did you grow up in a rural or
## #   urban area?` <chr>, `Do you identify as a first-generation
## #   student?` <chr>, `What is your legacy status?` <chr>, `What is your
## #   religious background?` <chr>, `What are your political views?` <chr>,
## #   Gender...14 <chr>, Class...15 <dbl>, `What extracurriculars are they
## #   most involved with on campus?...16` <chr>, `What area does their
## #   concentration fall into?...17` <chr>, `Are they a student
…
